%!PS-Adobe-3.0 EPSF-2.0
%%Title: Parallel RPR-2PRR
%%Creator: Maple 
%%Pages:  1
%%BoundingBox: 72 72 540 719 
%%DocumentNeededResources: font Helvetica
%%+ font Times-BoldItalic
%%EndComments
20 dict begin
gsave
/drawborder true def
/m {moveto} def
/l {lineto} def
/C {setrgbcolor} def
/Y /setcmykcolor where { %%ifelse Use built-in operator
       /setcmykcolor get
   }{ %%ifelse Emulate setcmykcolor with setrgbcolor
       { %%def
           1 sub 3 { %%repeat
               3 index add neg dup 0 lt { pop 0 } if 3 1 roll
           } repeat setrgbcolor
       } bind
   } ifelse def
/G {setgray} def
/S {stroke} def
/NP {newpath} def
%%%%This draws a filled polygon and avoids bugs/features
%%%%   of some postscript interpreters
%%%%GHOSTSCRIPT: has a bug in reversepath - removing
%%%%the call to reversepath is a sufficient work around
/P {gsave fill grestore reversepath stroke} def
%%%%This function is needed for drawing text.  It takes two arguments: a
%%%%string and a rotation. It outputs width and height.
/stringbbox {
    gsave NP 0 0 m    % Set origin for easy calculations.
    dup rotate exch   % Set orientation, and put string on top.
    false charpath flattenpath
    0 exch sub rotate % Undo rotation.
    pathbbox 4 2 roll pop pop  % Get dimens. of our string.
    1.1 mul cvi exch 1.1 mul cvi exch % Pad some.
    grestore} def
/thin 3 def
/medium 7 def
/thick 16 def
/boundarythick 20 def % thichess of bounding box
%%IncludeResource: font Helvetica
%%IncludeResource: font Times-BoldItalic
540.000000 72.000000 translate
90 rotate
/defaultTitleFont {/Helvetica findfont 219 scalefont setfont} def
/defaultFont {/Helvetica findfont 133 scalefont setfont} def
/userFont1 {/Times-BoldItalic findfont 165 scalefont setfont} def
0.0936 0.0936 scale
1 setlinejoin
1 setlinecap
0.0 setgray
/inch {72 mul} def
/fheight 0.35 inch neg def
defaultFont
    0     0     0     1 Y
medium setlinewidth
[] 0 setdash [] 0 setdash     0 0.431373 0.368627 0.0156863 Y
NP
4219 3190 m
3401 2383 l
2584 1576 l
4219 3190 l
P
    0     0     0 0.176471 Y
NP
2119 2888 m
2198 3602 l
2119 3602 l
2119 2888 l
P
NP
2119 2888 m
2198 2888 l
2198 3602 l
2119 2888 l
P
NP
3040 2223 m
3921 2125 l
3921 2223 l
3040 2223 l
P
NP
3040 2223 m
3040 2125 l
3921 2125 l
3040 2223 l
P
NP
2826 2551 m
3551 2813 l
3513 2889 l
2826 2551 l
P
NP
2826 2551 m
2864 2474 l
3551 2813 l
2826 2551 l
P
    0 0.431373 0.368627 0.0156863 Y
thick setlinewidth
[] 0 setdash NP 2158 4316 m 3401 2383 l
S
NP 4802 2174 m 2584 1576 l
S
    0     0     0     1 Y
NP 3401 2383 m 4219 3190 l
S
NP 2584 1576 m 3401 2383 l
S
NP 4219 3190 m 2584 1576 l
S
    0 0.431373 0.368627 0.0156863 Y
NP 2158 3602 m 2158 4316 l
S
    0     0     0     1 Y
NP 2198 2888 m 2119 2888 l
S
NP 2198 3602 m 2198 2888 l
S
NP 2119 3602 m 2198 3602 l
S
NP 2119 2888 m 2119 3602 l
S
    0 0.431373 0.368627 0.0156863 Y
NP 2158 2174 m 2158 2888 l
S
NP 3921 2174 m 4802 2174 l
S
    0     0     0     1 Y
NP 3040 2125 m 3040 2223 l
S
NP 3921 2125 m 3040 2125 l
S
NP 3921 2223 m 3921 2125 l
S
NP 3040 2223 m 3921 2223 l
S
    0 0.431373 0.368627 0.0156863 Y
NP 2158 2174 m 3040 2174 l
S
NP 3532 2851 m 4219 3190 l
S
    0     0     0     1 Y
NP 2864 2474 m 2826 2551 l
S
NP 3551 2813 m 2864 2474 l
S
NP 3513 2889 m 3551 2813 l
S
NP 2826 2551 m 3513 2889 l
S
    0 0.431373 0.368627 0.0156863 Y
NP 2158 2174 m 2845 2512 l
S
medium setlinewidth
NP
2815 991 40 0 360 arc S
NP
3374 991 40 0 360 arc S
NP
3262 991 40 0 360 arc S
NP
3150 991 40 0 360 arc S
NP
3039 991 40 0 360 arc S
NP
2927 991 40 0 360 arc S
NP
3401 2383 40 0 360 arc S
NP
2584 1576 40 0 360 arc S
NP
4219 3190 40 0 360 arc S
NP
2158 4316 40 0 360 arc S
NP
4802 2174 40 0 360 arc S
NP
2158 2174 40 0 360 arc S
    0     1     1     0 Y
NP
2158 4316 100 0 360 arc S
NP
2158 4316 60 0 360 arc S
NP
4802 2174 100 0 360 arc S
NP
4802 2174 60 0 360 arc S
    0 0.431373 0.368627 0.0156863 Y
NP
2158 2174 40 0 360 arc S
    0     0     0     1 Y
([x = 1.8, y = .88, alpha = \2612.4, S2 = 2.3, S3 = 1.9]) dup 0 stringbbox pop 944 exch pop 3549 exch m show
( ) dup 0 stringbbox pop 1105 exch pop 3234 exch m show
(Parallel RPR\2612PRR) dup 0 stringbbox 4499 exch sub exch 2 idiv 3461 exch sub exch m show
userFont1
(B3) dup 0 stringbbox 2383 exch sub exch 3401 exch sub exch m show
(B2) dup 0 stringbbox 1576 exch sub exch 2584 exch sub exch m show
(B1) dup 0 stringbbox 3190 exch sub exch 4219 exch sub exch m show
(A3) dup 0 stringbbox 4316 exch sub exch 2158 exch sub exch m show
(A2) dup 0 stringbbox 2174 exch sub exch 4802 exch sub exch m show
(A1) dup 0 stringbbox 2174 exch sub exch 2158 exch sub exch m show
boundarythick setlinewidth
% The following draws a box around the plot,
% if the variable drawborder is true
drawborder { 
/bd boundarythick 2 idiv def
[] 0 setdash 
NP bd bd m bd 5000 bd sub l 
6923 bd sub 5000 bd sub l 
6923 bd sub bd l 
bd bd l S
} if % end of if to draw the border

showpage
grestore
end
%%EOF
