%!PS-Adobe-3.0 EPSF-2.0
%%Title: Parallel RPR-2PRR
%%Creator: Maple 
%%Pages:  1
%%BoundingBox: 72 72 540 719 
%%DocumentNeededResources: font Helvetica
%%+ font Times-BoldItalic
%%EndComments
20 dict begin
gsave
/drawborder true def
/m {moveto} def
/l {lineto} def
/C {setrgbcolor} def
/Y /setcmykcolor where { %%ifelse Use built-in operator
       /setcmykcolor get
   }{ %%ifelse Emulate setcmykcolor with setrgbcolor
       { %%def
           1 sub 3 { %%repeat
               3 index add neg dup 0 lt { pop 0 } if 3 1 roll
           } repeat setrgbcolor
       } bind
   } ifelse def
/G {setgray} def
/S {stroke} def
/NP {newpath} def
%%%%This draws a filled polygon and avoids bugs/features
%%%%   of some postscript interpreters
%%%%GHOSTSCRIPT: has a bug in reversepath - removing
%%%%the call to reversepath is a sufficient work around
/P {gsave fill grestore reversepath stroke} def
%%%%This function is needed for drawing text.  It takes two arguments: a
%%%%string and a rotation. It outputs width and height.
/stringbbox {
    gsave NP 0 0 m    % Set origin for easy calculations.
    dup rotate exch   % Set orientation, and put string on top.
    false charpath flattenpath
    0 exch sub rotate % Undo rotation.
    pathbbox 4 2 roll pop pop  % Get dimens. of our string.
    1.1 mul cvi exch 1.1 mul cvi exch % Pad some.
    grestore} def
/thin 3 def
/medium 7 def
/thick 16 def
/boundarythick 20 def % thichess of bounding box
%%IncludeResource: font Helvetica
%%IncludeResource: font Times-BoldItalic
540.000000 72.000000 translate
90 rotate
/defaultTitleFont {/Helvetica findfont 219 scalefont setfont} def
/defaultFont {/Helvetica findfont 133 scalefont setfont} def
/userFont1 {/Times-BoldItalic findfont 165 scalefont setfont} def
0.0936 0.0936 scale
1 setlinejoin
1 setlinecap
0.0 setgray
/inch {72 mul} def
/fheight 0.35 inch neg def
defaultFont
    0     0     0     1 Y
medium setlinewidth
[] 0 setdash [] 0 setdash 0.32549     0 0.0117647 0.0470588 Y
NP
4151 2831 m
3313 2349 l
2474 1868 l
4151 2831 l
P
0.196078     0 0.270588 0.231373 Y
NP
4001 3227 m
3313 2548 l
2625 1868 l
4001 3227 l
P
    0 0.431373 0.368627 0.0156863 Y
NP
3821 3513 m
3313 2691 l
2805 1868 l
3821 3513 l
P
    0     0     0 0.176471 Y
NP
2249 2892 m
2310 3438 l
2249 3438 l
2249 2892 l
P
NP
2249 2892 m
2310 2892 l
2310 3438 l
2249 2892 l
P
NP
2969 2384 m
3658 2307 l
3658 2384 l
2969 2384 l
P
NP
2969 2384 m
2969 2307 l
3658 2307 l
2969 2384 l
P
NP
2894 2542 m
3536 2634 l
3518 2704 l
2894 2542 l
P
NP
2894 2542 m
2912 2473 l
3536 2634 l
2894 2542 l
P
NP
2245 2958 m
2313 3570 l
2245 3570 l
2245 2958 l
P
NP
2245 2958 m
2313 2958 l
2313 3570 l
2245 2958 l
P
NP
3019 2387 m
3759 2305 l
3759 2387 l
3019 2387 l
P
NP
3019 2387 m
3019 2305 l
3759 2305 l
3019 2387 l
P
NP
2837 2671 m
3443 2901 l
3411 2965 l
2837 2671 l
P
NP
2837 2671 m
2869 2608 l
3443 2901 l
2837 2671 l
P
NP
2243 3005 m
2316 3665 l
2243 3665 l
2243 3005 l
P
NP
2243 3005 m
2316 3005 l
2316 3665 l
2243 3005 l
P
NP
3079 2390 m
3879 2301 l
3879 2390 l
3079 2390 l
P
NP
3079 2390 m
3079 2301 l
3879 2301 l
3079 2390 l
P
NP
2772 2763 m
3329 3095 l
3285 3153 l
2772 2763 l
P
NP
2772 2763 m
2815 2706 l
3329 3095 l
2772 2763 l
P
0.32549     0 0.0117647 0.0470588 Y
thick setlinewidth
[] 0 setdash NP 2279 3984 m 3313 2349 l
S
NP 4348 2346 m 2474 1868 l
S
0.196078     0 0.270588 0.231373 Y
NP 2279 4182 m 3313 2548 l
S
NP 4499 2346 m 2625 1868 l
S
    0 0.431373 0.368627 0.0156863 Y
NP 2279 4325 m 3313 2691 l
S
NP 4678 2346 m 2805 1868 l
S
    0     0     0     1 Y
NP 3313 2349 m 4151 2831 l
S
NP 2474 1868 m 3313 2349 l
S
NP 4151 2831 m 2474 1868 l
S
NP 3313 2548 m 4001 3227 l
S
NP 2625 1868 m 3313 2548 l
S
NP 4001 3227 m 2625 1868 l
S
NP 3313 2691 m 3821 3513 l
S
NP 2805 1868 m 3313 2691 l
S
NP 3821 3513 m 2805 1868 l
S
0.32549     0 0.0117647 0.0470588 Y
NP 2279 3438 m 2279 3984 l
S
    0     0     0     1 Y
NP 2310 2892 m 2249 2892 l
S
NP 2310 3438 m 2310 2892 l
S
NP 2249 3438 m 2310 3438 l
S
NP 2249 2892 m 2249 3438 l
S
0.32549     0 0.0117647 0.0470588 Y
NP 2279 2346 m 2279 2892 l
S
NP 3658 2346 m 4348 2346 l
S
    0     0     0     1 Y
NP 2969 2307 m 2969 2384 l
S
NP 3658 2307 m 2969 2307 l
S
NP 3658 2384 m 3658 2307 l
S
NP 2969 2384 m 3658 2384 l
S
0.32549     0 0.0117647 0.0470588 Y
NP 2279 2346 m 2969 2346 l
S
NP 3527 2669 m 4151 2831 l
S
    0     0     0     1 Y
NP 2912 2473 m 2894 2542 l
S
NP 3536 2634 m 2912 2473 l
S
NP 3518 2704 m 3536 2634 l
S
NP 2894 2542 m 3518 2704 l
S
0.32549     0 0.0117647 0.0470588 Y
NP 2279 2346 m 2903 2507 l
S
0.196078     0 0.270588 0.231373 Y
NP 2279 3570 m 2279 4182 l
S
    0     0     0     1 Y
NP 2313 2958 m 2245 2958 l
S
NP 2313 3570 m 2313 2958 l
S
NP 2245 3570 m 2313 3570 l
S
NP 2245 2958 m 2245 3570 l
S
0.196078     0 0.270588 0.231373 Y
NP 2279 2346 m 2279 2958 l
S
NP 3759 2346 m 4499 2346 l
S
    0     0     0     1 Y
NP 3019 2305 m 3019 2387 l
S
NP 3759 2305 m 3019 2305 l
S
NP 3759 2387 m 3759 2305 l
S
NP 3019 2387 m 3759 2387 l
S
0.196078     0 0.270588 0.231373 Y
NP 2279 2346 m 3019 2346 l
S
NP 3427 2933 m 4001 3227 l
S
    0     0     0     1 Y
NP 2869 2608 m 2837 2671 l
S
NP 3443 2901 m 2869 2608 l
S
NP 3411 2965 m 3443 2901 l
S
NP 2837 2671 m 3411 2965 l
S
0.196078     0 0.270588 0.231373 Y
NP 2279 2346 m 2853 2640 l
S
    0 0.431373 0.368627 0.0156863 Y
NP 2279 3665 m 2279 4325 l
S
    0     0     0     1 Y
NP 2316 3005 m 2243 3005 l
S
NP 2316 3665 m 2316 3005 l
S
NP 2243 3665 m 2316 3665 l
S
NP 2243 3005 m 2243 3665 l
S
    0 0.431373 0.368627 0.0156863 Y
NP 2279 2346 m 2279 3005 l
S
NP 3879 2346 m 4678 2346 l
S
    0     0     0     1 Y
NP 3079 2301 m 3079 2390 l
S
NP 3879 2301 m 3079 2301 l
S
NP 3879 2390 m 3879 2301 l
S
NP 3079 2390 m 3879 2390 l
S
    0 0.431373 0.368627 0.0156863 Y
NP 2279 2346 m 3079 2346 l
S
NP 3307 3124 m 3821 3513 l
S
    0     0     0     1 Y
NP 2815 2706 m 2772 2763 l
S
NP 3329 3095 m 2815 2706 l
S
NP 3285 3153 m 3329 3095 l
S
NP 2772 2763 m 3285 3153 l
S
    0 0.431373 0.368627 0.0156863 Y
NP 2279 2346 m 2793 2735 l
S
medium setlinewidth
NP
2875 1318 40 0 360 arc S
0.196078     0 0.270588 0.231373 Y
NP
2875 1191 40 0 360 arc S
0.32549     0 0.0117647 0.0470588 Y
NP
2875 1064 40 0 360 arc S
NP
3382 1064 40 0 360 arc S
NP
3280 1064 40 0 360 arc S
NP
3179 1064 40 0 360 arc S
NP
3078 1064 40 0 360 arc S
NP
2976 1064 40 0 360 arc S
0.196078     0 0.270588 0.231373 Y
NP
3382 1191 40 0 360 arc S
NP
3280 1191 40 0 360 arc S
NP
3179 1191 40 0 360 arc S
NP
3078 1191 40 0 360 arc S
NP
2976 1191 40 0 360 arc S
    0 0.431373 0.368627 0.0156863 Y
NP
3382 1318 40 0 360 arc S
NP
3280 1318 40 0 360 arc S
NP
3179 1318 40 0 360 arc S
NP
3078 1318 40 0 360 arc S
NP
2976 1318 40 0 360 arc S
0.32549     0 0.0117647 0.0470588 Y
NP
3313 2349 40 0 360 arc S
NP
2474 1868 40 0 360 arc S
NP
4151 2831 40 0 360 arc S
NP
2279 3984 40 0 360 arc S
NP
4348 2346 40 0 360 arc S
NP
2279 2346 40 0 360 arc S
0.196078     0 0.270588 0.231373 Y
NP
3313 2548 40 0 360 arc S
NP
2625 1868 40 0 360 arc S
NP
4001 3227 40 0 360 arc S
NP
2279 4182 40 0 360 arc S
NP
4499 2346 40 0 360 arc S
NP
2279 2346 40 0 360 arc S
    0 0.431373 0.368627 0.0156863 Y
NP
3313 2691 40 0 360 arc S
NP
2805 1868 40 0 360 arc S
NP
3821 3513 40 0 360 arc S
NP
2279 4325 40 0 360 arc S
NP
4678 2346 40 0 360 arc S
NP
2279 2346 40 0 360 arc S
    0     1     1     0 Y
NP
2279 3984 100 0 360 arc S
NP
2279 3984 60 0 360 arc S
NP
4348 2346 100 0 360 arc S
NP
4348 2346 60 0 360 arc S
NP
2279 4182 100 0 360 arc S
NP
2279 4182 60 0 360 arc S
NP
4499 2346 100 0 360 arc S
NP
4499 2346 60 0 360 arc S
NP
2279 4325 100 0 360 arc S
NP
2279 4325 60 0 360 arc S
NP
4678 2346 100 0 360 arc S
NP
4678 2346 60 0 360 arc S
0.32549     0 0.0117647 0.0470588 Y
NP
2279 2346 40 0 360 arc S
0.196078     0 0.270588 0.231373 Y
NP
2279 2346 40 0 360 arc S
    0 0.431373 0.368627 0.0156863 Y
NP
2279 2346 40 0 360 arc S
    0     0     0     1 Y
([x = 1.6, y = 1.2, alpha = \2612.1, S2 = 2.5, S3 = 2.0]) dup 0 stringbbox pop 1271 exch pop 3541 exch m show
([x = 1.8, y = .91, alpha = \2612.4, S2 = 2.3, S3 = 1.9]) dup 0 stringbbox pop 1144 exch pop 3541 exch m show
([x = 1.9, y = .50, alpha = \2612.6, S2 = 2.1, S3 = 1.7]) dup 0 stringbbox pop 1016 exch pop 3541 exch m show
( ) dup 0 stringbbox pop 1431 exch pop 3234 exch m show
(Parallel RPR\2612PRR) dup 0 stringbbox 4499 exch sub exch 2 idiv 3461 exch sub exch m show
userFont1
(B3) dup 0 stringbbox 2349 exch sub exch 3313 exch sub exch m show
(B2) dup 0 stringbbox 1868 exch sub exch 2474 exch sub exch m show
(B1) dup 0 stringbbox 2831 exch sub exch 4151 exch sub exch m show
(A3) dup 0 stringbbox 3984 exch sub exch 2279 exch sub exch m show
(A2) dup 0 stringbbox 2346 exch sub exch 4348 exch sub exch m show
(A1) dup 0 stringbbox 2346 exch sub exch 2279 exch sub exch m show
(B3) dup 0 stringbbox 2548 exch sub exch 3313 exch sub exch m show
(B2) dup 0 stringbbox 1868 exch sub exch 2625 exch sub exch m show
(B1) dup 0 stringbbox 3227 exch sub exch 4001 exch sub exch m show
(A3) dup 0 stringbbox 4182 exch sub exch 2279 exch sub exch m show
(A2) dup 0 stringbbox 2346 exch sub exch 4499 exch sub exch m show
(A1) dup 0 stringbbox 2346 exch sub exch 2279 exch sub exch m show
(B3) dup 0 stringbbox 2691 exch sub exch 3313 exch sub exch m show
(B2) dup 0 stringbbox 1868 exch sub exch 2805 exch sub exch m show
(B1) dup 0 stringbbox 3513 exch sub exch 3821 exch sub exch m show
(A3) dup 0 stringbbox 4325 exch sub exch 2279 exch sub exch m show
(A2) dup 0 stringbbox 2346 exch sub exch 4678 exch sub exch m show
(A1) dup 0 stringbbox 2346 exch sub exch 2279 exch sub exch m show
boundarythick setlinewidth
% The following draws a box around the plot,
% if the variable drawborder is true
drawborder { 
/bd boundarythick 2 idiv def
[] 0 setdash 
NP bd bd m bd 5000 bd sub l 
6923 bd sub 5000 bd sub l 
6923 bd sub bd l 
bd bd l S
} if % end of if to draw the border

showpage
grestore
end
%%EOF
