%!PS-Adobe-3.0 EPSF-2.0
%%Title: Maple plot
%%Creator: Maple 
%%Pages:  1
%%BoundingBox: 72 72 540 719 
%%DocumentNeededResources: font Helvetica
%%EndComments
20 dict begin
gsave
/drawborder true def
/m {moveto} def
/l {lineto} def
/C {setrgbcolor} def
/Y /setcmykcolor where { %%ifelse Use built-in operator
       /setcmykcolor get
   }{ %%ifelse Emulate setcmykcolor with setrgbcolor
       { %%def
           1 sub 3 { %%repeat
               3 index add neg dup 0 lt { pop 0 } if 3 1 roll
           } repeat setrgbcolor
       } bind
   } ifelse def
/G {setgray} def
/S {stroke} def
/NP {newpath} def
%%%%This draws a filled polygon and avoids bugs/features
%%%%   of some postscript interpreters
%%%%GHOSTSCRIPT: has a bug in reversepath - removing
%%%%the call to reversepath is a sufficient work around
/P {gsave fill grestore reversepath stroke} def
%%%%This function is needed for drawing text.  It takes two arguments: a
%%%%string and a rotation. It outputs width and height.
/stringbbox {
    gsave NP 0 0 m    % Set origin for easy calculations.
    dup rotate exch   % Set orientation, and put string on top.
    false charpath flattenpath
    0 exch sub rotate % Undo rotation.
    pathbbox 4 2 roll pop pop  % Get dimens. of our string.
    1.1 mul cvi exch 1.1 mul cvi exch % Pad some.
    grestore} def
/thin 3 def
/medium 7 def
/thick 16 def
/boundarythick 20 def % thichess of bounding box
%%IncludeResource: font Helvetica
540.000000 72.000000 translate
90 rotate
/defaultTitleFont {/Helvetica findfont 219 scalefont setfont} def
/defaultFont {/Helvetica findfont 133 scalefont setfont} def
0.0936 0.0936 scale
1 setlinejoin
1 setlinecap
0.0 setgray
/inch {72 mul} def
/fheight 0.35 inch neg def
    0     0     0     1 Y
medium setlinewidth
[] 0 setdash [] 0 setdash 0.27451   0.2     0 0.054902 Y
NP
5171 2100 m
5197 4500 l
5201 4500 l
5201 2100 l
5171 2100 l
P
NP
5171 2100 m
5171 4500 l
5197 4500 l
5171 2100 l
P
NP
5091 2107 m
5160 4500 l
5171 4500 l
5171 2100 l
5091 2107 l
P
NP
5091 2107 m
5091 4500 l
5160 4500 l
5091 2107 l
P
NP
4975 2132 m
5074 4500 l
5091 4500 l
5091 2107 l
4975 2132 l
P
NP
4975 2132 m
4975 4500 l
5074 4500 l
4975 2132 l
P
NP
4838 2182 m
4955 4500 l
4975 4500 l
4975 2132 l
4838 2182 l
P
NP
4838 2182 m
4838 4500 l
4955 4500 l
4838 2182 l
P
NP
4694 2256 m
4816 4500 l
4838 4500 l
4838 2182 l
4694 2256 l
P
NP
4694 2256 m
4694 4500 l
4816 4500 l
4694 2256 l
P
NP
4557 2341 m
4672 4500 l
4694 4500 l
4694 2256 l
4557 2341 l
P
NP
4557 2341 m
4557 4500 l
4672 4500 l
4557 2341 l
P
NP
4441 2421 m
4538 4500 l
4557 4500 l
4557 2341 l
4441 2421 l
P
NP
4441 2421 m
4441 4500 l
4538 4500 l
4441 2421 l
P
NP
4361 2478 m
4428 4500 l
4441 4500 l
4441 2421 l
4361 2478 l
P
NP
4361 2478 m
4361 4500 l
4428 4500 l
4361 2478 l
P
NP
4331 2500 m
4356 4500 l
4361 4500 l
4361 2478 l
4331 2500 l
P
NP
4331 2500 m
4331 4500 l
4356 4500 l
4331 2500 l
P
0.32549     0 0.0117647 0.0470588 Y
NP
5177 500 m
5201 2099 l
5201 500 l
5177 500 l
P
NP
5171 500 m
5171 2100 l
5201 2099 l
5177 500 l
5171 500 l
P
NP
5107 500 m
5171 2100 l
5171 500 l
5107 500 l
P
NP
5091 500 m
5091 2107 l
5171 2100 l
5107 500 l
5091 500 l
P
NP
4998 500 m
5091 2107 l
5091 500 l
4998 500 l
P
NP
4975 500 m
4975 2132 l
5091 2107 l
4998 500 l
4975 500 l
P
NP
4865 500 m
4975 2132 l
4975 500 l
4865 500 l
P
NP
4838 500 m
4838 2182 l
4975 2132 l
4865 500 l
4838 500 l
P
NP
4721 500 m
4838 2182 l
4838 500 l
4721 500 l
P
NP
4694 500 m
4694 2256 l
4838 2182 l
4721 500 l
4694 500 l
P
NP
4582 500 m
4694 2256 l
4694 500 l
4582 500 l
P
NP
4557 500 m
4557 2341 l
4694 2256 l
4582 500 l
4557 500 l
P
NP
4461 500 m
4557 2341 l
4557 500 l
4461 500 l
P
NP
4441 500 m
4441 2421 l
4557 2341 l
4461 500 l
4441 500 l
P
NP
4375 500 m
4441 2421 l
4441 500 l
4375 500 l
P
NP
4361 500 m
4361 2478 l
4441 2421 l
4375 500 l
4361 500 l
P
NP
4336 500 m
4361 2478 l
4361 500 l
4336 500 l
P
NP
4331 500 m
4331 2499 l
4361 2478 l
4336 500 l
4331 500 l
P
0.196078     0 0.270588 0.231373 Y
NP
4241 2564 m
4316 4500 l
4331 4500 l
4331 2500 l
4241 2564 l
P
NP
4241 2564 m
4241 4500 l
4316 4500 l
4241 2564 l
P
NP
4002 2724 m
4197 4500 l
4241 4500 l
4241 2564 l
4002 2724 l
P
NP
4002 2724 m
4002 4500 l
4197 4500 l
4002 2724 l
P
NP
3654 2875 m
3933 4500 l
4002 4500 l
4002 2724 l
3654 2875 l
P
NP
3654 2875 m
3654 4500 l
3933 4500 l
3654 2875 l
P
NP
3243 2869 m
3573 4500 l
3654 4500 l
3654 2875 l
3243 2869 l
P
NP
3243 2869 m
3243 4500 l
3573 4500 l
3243 2869 l
P
NP
2809 2653 m
3165 4500 l
3243 4500 l
3243 2869 l
2809 2653 l
P
NP
2809 2653 m
2809 4500 l
3165 4500 l
2809 2653 l
P
NP
2398 2363 m
2744 4500 l
2809 4500 l
2809 2653 l
2398 2363 l
P
NP
2398 2363 m
2398 4500 l
2744 4500 l
2398 2363 l
P
NP
2050 2168 m
2347 4500 l
2398 4500 l
2398 2363 l
2050 2168 l
P
NP
2050 2168 m
2050 4500 l
2347 4500 l
2050 2168 l
P
NP
1811 2105 m
2016 4500 l
2050 4500 l
2050 2168 l
1811 2105 l
P
NP
1811 2105 m
1811 4500 l
2016 4500 l
1811 2105 l
P
NP
1721 2100 m
1798 4500 l
1811 4500 l
1811 2105 l
1721 2100 l
P
NP
1721 2100 m
1721 4500 l
1798 4500 l
1721 2100 l
P
    0 0.431373 0.368627 0.0156863 Y
NP
4256 500 m
4331 2500 l
4331 500 l
4256 500 l
P
NP
4241 500 m
4241 2564 l
4331 2500 l
4256 500 l
4241 500 l
P
NP
4041 500 m
4241 2564 l
4241 500 l
4041 500 l
P
NP
4002 500 m
4002 2724 l
4241 2564 l
4041 500 l
4002 500 l
P
NP
3707 500 m
4002 2724 l
4002 500 l
3707 500 l
P
NP
3654 500 m
3654 2875 l
4002 2724 l
3707 500 l
3654 500 l
P
NP
3302 500 m
3654 2875 l
3654 500 l
3302 500 l
P
NP
3243 500 m
3243 2869 l
3654 2875 l
3302 500 l
3243 500 l
P
NP
2872 500 m
3243 2869 l
3243 500 l
2872 500 l
P
NP
2809 500 m
2809 2653 l
3243 2869 l
2872 500 l
2809 500 l
P
NP
2462 500 m
2809 2653 l
2809 500 l
2462 500 l
P
NP
2398 500 m
2398 2363 l
2809 2653 l
2462 500 l
2398 500 l
P
NP
2112 500 m
2398 2363 l
2398 500 l
2112 500 l
P
NP
2050 500 m
2050 2168 l
2398 2363 l
2112 500 l
2050 500 l
P
NP
1857 500 m
2050 2168 l
2050 500 l
1857 500 l
P
NP
1811 500 m
1811 2105 l
2050 2168 l
1857 500 l
1811 500 l
P
NP
1739 500 m
1811 2105 l
1811 500 l
1739 500 l
P
NP
1721 500 m
1721 2099 l
1811 2105 l
1739 500 l
1721 500 l
P
defaultFont
    0     0     0     1 Y
[] 0 setdash NP 4331 2500 m 4331 4500 l
S
0.27451   0.2     0 0.054902 Y
NP 5171 4500 m 5171 2100 l
S
NP 5201 2100 m 5201 4500 l
S
NP 5171 2100 m 5201 2100 l
S
NP 5091 4500 m 5091 2107 l
S
NP 5171 2100 m 5171 4500 l
S
NP 5091 2107 m 5171 2100 l
S
NP 4975 4500 m 4975 2132 l
S
NP 5091 2107 m 5091 4500 l
S
NP 4975 2132 m 5091 2107 l
S
NP 4838 4500 m 4838 2182 l
S
NP 4975 2132 m 4975 4500 l
S
NP 4838 2182 m 4975 2132 l
S
NP 4694 4500 m 4694 2256 l
S
NP 4838 2182 m 4838 4500 l
S
NP 4694 2256 m 4838 2182 l
S
NP 4557 4500 m 4557 2341 l
S
NP 4694 2256 m 4694 4500 l
S
NP 4557 2341 m 4694 2256 l
S
NP 4441 4500 m 4441 2421 l
S
NP 4557 2341 m 4557 4500 l
S
NP 4441 2421 m 4557 2341 l
S
NP 4361 4500 m 4361 2478 l
S
NP 4441 2421 m 4441 4500 l
S
NP 4361 2478 m 4441 2421 l
S
NP 4331 4500 m 4331 2500 l
S
NP 4361 2478 m 4361 4500 l
S
NP 4331 2500 m 4361 2478 l
S
    0     0     0     1 Y
NP 5171 2100 m 5201 2100 l
S
NP 5091 2107 m 5171 2100 l
S
NP 4975 2132 m 5091 2107 l
S
NP 4838 2182 m 4975 2132 l
S
NP 4694 2256 m 4838 2182 l
S
NP 4557 2341 m 4694 2256 l
S
NP 4441 2421 m 4557 2341 l
S
NP 4361 2478 m 4441 2421 l
S
NP 4331 2500 m 4361 2478 l
S
NP 4331 500 m 4331 2499 l
S
0.32549     0 0.0117647 0.0470588 Y
NP 5171 2100 m 5171 500 l
S
NP 5201 2099 m 5171 2100 l
S
NP 5201 500 m 5201 2099 l
S
NP 5091 2107 m 5091 500 l
S
NP 5171 2100 m 5091 2107 l
S
NP 5171 500 m 5171 2100 l
S
NP 4975 2132 m 4975 500 l
S
NP 5091 2107 m 4975 2132 l
S
NP 5091 500 m 5091 2107 l
S
NP 4838 2182 m 4838 500 l
S
NP 4975 2132 m 4838 2182 l
S
NP 4975 500 m 4975 2132 l
S
NP 4694 2256 m 4694 500 l
S
NP 4838 2182 m 4694 2256 l
S
NP 4838 500 m 4838 2182 l
S
NP 4557 2341 m 4557 500 l
S
NP 4694 2256 m 4557 2341 l
S
NP 4694 500 m 4694 2256 l
S
NP 4441 2421 m 4441 500 l
S
NP 4557 2341 m 4441 2421 l
S
NP 4557 500 m 4557 2341 l
S
NP 4361 2478 m 4361 500 l
S
NP 4441 2421 m 4361 2478 l
S
NP 4441 500 m 4441 2421 l
S
NP 4331 2499 m 4331 500 l
S
NP 4361 2478 m 4331 2499 l
S
NP 4361 500 m 4361 2478 l
S
    0     0     0     1 Y
NP 5171 2100 m 5201 2099 l
S
NP 5091 2107 m 5171 2100 l
S
NP 4975 2132 m 5091 2107 l
S
NP 4838 2182 m 4975 2132 l
S
NP 4694 2256 m 4838 2182 l
S
NP 4557 2341 m 4694 2256 l
S
NP 4441 2421 m 4557 2341 l
S
NP 4361 2478 m 4441 2421 l
S
NP 4331 2499 m 4361 2478 l
S
NP 1721 2100 m 1721 4500 l
S
0.196078     0 0.270588 0.231373 Y
NP 4241 4500 m 4241 2564 l
S
NP 4331 2500 m 4331 4500 l
S
NP 4241 2564 m 4331 2500 l
S
NP 4002 4500 m 4002 2724 l
S
NP 4241 2564 m 4241 4500 l
S
NP 4002 2724 m 4241 2564 l
S
NP 3654 4500 m 3654 2875 l
S
NP 4002 2724 m 4002 4500 l
S
NP 3654 2875 m 4002 2724 l
S
NP 3243 4500 m 3243 2869 l
S
NP 3654 2875 m 3654 4500 l
S
NP 3243 2869 m 3654 2875 l
S
NP 2809 4500 m 2809 2653 l
S
NP 3243 2869 m 3243 4500 l
S
NP 2809 2653 m 3243 2869 l
S
NP 2398 4500 m 2398 2363 l
S
NP 2809 2653 m 2809 4500 l
S
NP 2398 2363 m 2809 2653 l
S
NP 2050 4500 m 2050 2168 l
S
NP 2398 2363 m 2398 4500 l
S
NP 2050 2168 m 2398 2363 l
S
NP 1811 4500 m 1811 2105 l
S
NP 2050 2168 m 2050 4500 l
S
NP 1811 2105 m 2050 2168 l
S
NP 1721 4500 m 1721 2100 l
S
NP 1811 2105 m 1811 4500 l
S
NP 1721 2100 m 1811 2105 l
S
    0     0     0     1 Y
NP 4241 2564 m 4331 2500 l
S
NP 4002 2724 m 4241 2564 l
S
NP 3654 2875 m 4002 2724 l
S
NP 3243 2869 m 3654 2875 l
S
NP 2809 2653 m 3243 2869 l
S
NP 2398 2363 m 2809 2653 l
S
NP 2050 2168 m 2398 2363 l
S
NP 1811 2105 m 2050 2168 l
S
NP 1721 2100 m 1811 2105 l
S
NP 1721 500 m 1721 2099 l
S
    0 0.431373 0.368627 0.0156863 Y
NP 4241 2564 m 4241 500 l
S
NP 4331 2500 m 4241 2564 l
S
NP 4331 500 m 4331 2500 l
S
NP 4002 2724 m 4002 500 l
S
NP 4241 2564 m 4002 2724 l
S
NP 4241 500 m 4241 2564 l
S
NP 3654 2875 m 3654 500 l
S
NP 4002 2724 m 3654 2875 l
S
NP 4002 500 m 4002 2724 l
S
NP 3243 2869 m 3243 500 l
S
NP 3654 2875 m 3243 2869 l
S
NP 3654 500 m 3654 2875 l
S
NP 2809 2653 m 2809 500 l
S
NP 3243 2869 m 2809 2653 l
S
NP 3243 500 m 3243 2869 l
S
NP 2398 2363 m 2398 500 l
S
NP 2809 2653 m 2398 2363 l
S
NP 2809 500 m 2809 2653 l
S
NP 2050 2168 m 2050 500 l
S
NP 2398 2363 m 2050 2168 l
S
NP 2398 500 m 2398 2363 l
S
NP 1811 2105 m 1811 500 l
S
NP 2050 2168 m 1811 2105 l
S
NP 2050 500 m 2050 2168 l
S
NP 1721 2099 m 1721 500 l
S
NP 1811 2105 m 1721 2099 l
S
NP 1811 500 m 1811 2105 l
S
    0     0     0     1 Y
NP 4241 2564 m 4331 2500 l
S
NP 4002 2724 m 4241 2564 l
S
NP 3654 2875 m 4002 2724 l
S
NP 3243 2869 m 3654 2875 l
S
NP 2809 2653 m 3243 2869 l
S
NP 2398 2363 m 2809 2653 l
S
NP 2050 2168 m 2398 2363 l
S
NP 1811 2105 m 2050 2168 l
S
NP 1721 2099 m 1811 2105 l
S
medium setlinewidth
NP 692 500 m 692 4500 l
S
thin setlinewidth
NP 670 579 m 692 579 l
S
NP 670 739 m 692 739 l
S
NP 648 899 m 692 899 l
S
NP 670 1059 m 692 1059 l
S
NP 670 1219 m 692 1219 l
S
NP 670 1380 m 692 1380 l
S
NP 670 1540 m 692 1540 l
S
NP 648 1700 m 692 1700 l
S
NP 670 1859 m 692 1859 l
S
NP 670 2019 m 692 2019 l
S
NP 670 2179 m 692 2179 l
S
NP 670 2340 m 692 2340 l
S
NP 648 2500 m 692 2500 l
S
NP 670 2659 m 692 2659 l
S
NP 670 2820 m 692 2820 l
S
NP 670 2979 m 692 2979 l
S
NP 670 3139 m 692 3139 l
S
NP 648 3300 m 692 3300 l
S
NP 670 3460 m 692 3460 l
S
NP 670 3620 m 692 3620 l
S
NP 670 3780 m 692 3780 l
S
NP 670 3940 m 692 3940 l
S
NP 648 4100 m 692 4100 l
S
NP 670 4260 m 692 4260 l
S
NP 670 4420 m 692 4420 l
S
medium setlinewidth
NP 692 500 m 6230 500 l
S
thin setlinewidth
NP 803 483 m 803 500 l
S
NP 1024 483 m 1024 500 l
S
NP 1246 466 m 1246 500 l
S
NP 1467 483 m 1467 500 l
S
NP 1689 483 m 1689 500 l
S
NP 1910 483 m 1910 500 l
S
NP 2132 483 m 2132 500 l
S
NP 2353 466 m 2353 500 l
S
NP 2575 483 m 2575 500 l
S
NP 2796 483 m 2796 500 l
S
NP 3018 483 m 3018 500 l
S
NP 3239 483 m 3239 500 l
S
NP 3461 466 m 3461 500 l
S
NP 3683 483 m 3683 500 l
S
NP 3904 483 m 3904 500 l
S
NP 4126 483 m 4126 500 l
S
NP 4347 483 m 4347 500 l
S
NP 4569 466 m 4569 500 l
S
NP 4790 483 m 4790 500 l
S
NP 5012 483 m 5012 500 l
S
NP 5233 483 m 5233 500 l
S
NP 5455 483 m 5455 500 l
S
NP 5676 466 m 5676 500 l
S
NP 5898 483 m 5898 500 l
S
NP 6119 483 m 6119 500 l
S
medium setlinewidth
NP 692 4500 m 6230 4500 l
S
NP 6230 500 m 6230 4500 l
S
medium setlinewidth
(\2614) dup 0 stringbbox 2 idiv 899 exch sub exch 629 exch sub exch m show
(\2612) dup 0 stringbbox 2 idiv 1700 exch sub exch 629 exch sub exch m show
(0) dup 0 stringbbox 2 idiv 2500 exch sub exch 629 exch sub exch m show
(2) dup 0 stringbbox 2 idiv 3300 exch sub exch 629 exch sub exch m show
(4) dup 0 stringbbox 2 idiv 4100 exch sub exch 629 exch sub exch m show
(y) dup 0 stringbbox 2 idiv 2500 exch sub exch 296 exch sub exch m show
(\2614) dup 0 stringbbox 452 exch sub exch 2 idiv 1246 exch sub exch m show
(\2612) dup 0 stringbbox 452 exch sub exch 2 idiv 2353 exch sub exch m show
(0) dup 0 stringbbox 452 exch sub exch 2 idiv 3461 exch sub exch m show
(2) dup 0 stringbbox 452 exch sub exch 2 idiv 4569 exch sub exch m show
(4) dup 0 stringbbox 452 exch sub exch 2 idiv 5676 exch sub exch m show
(x) dup 0 stringbbox 179 exch sub exch 2 idiv 3461 exch sub exch m show
boundarythick setlinewidth
% The following draws a box around the plot,
% if the variable drawborder is true
drawborder { 
/bd boundarythick 2 idiv def
[] 0 setdash 
NP bd bd m bd 5000 bd sub l 
6923 bd sub 5000 bd sub l 
6923 bd sub bd l 
bd bd l S
} if % end of if to draw the border

showpage
grestore
end
%%EOF
